funciona.vcd
$date
	Wed Jun  4 19:43:01 2025
$end
$version
	Icarus Verilog
$end
$timescale
	1ps
$end
$scope module poliriscv_sc_tb $end
$scope module riscv $end
$var wire 1 ! clk $end
$var wire 1 " mem2reg $end
$var wire 1 # memwrite $end
$var wire 1 $ pcsrc $end
$var wire 1 % rst $end
$var wire 1 & zero_comb $end
$var wire 1 ' regwrite $end
$var wire 32 ( pc [31:0] $end
$var wire 32 ) instruction [31:0] $end
$var wire 1 * branch_comb $end
$var wire 1 + alusrc $end
$var wire 4 , aluctl [3:0] $end
$var parameter 88 - IFILE $end
$var parameter 32 . datawords $end
$var parameter 32 / instructions $end
$scope module control_unit0 $end
$var wire 1 + alusrc $end
$var wire 1 * branch $end
$var wire 3 0 funct3 [2:0] $end
$var wire 7 1 funct7 [6:0] $end
$var wire 1 " mem2reg $end
$var wire 1 # memwrite $end
$var wire 7 2 opcode [6:0] $end
$var wire 1 ' regwrite $end
$var wire 1 & zero $end
$var wire 1 3 is_rtype $end
$var wire 1 4 is_itype $end
$var wire 1 5 is_branch $end
$var wire 4 6 aluctl [3:0] $end
$var parameter 7 7 BRANCH $end
$var parameter 7 8 I_TYPE $end
$var parameter 7 9 R_TYPE $end
$upscope $end
$scope module datapath0 $end
$var wire 4 : aluctl [3:0] $end
$var wire 1 + alusrc $end
$var wire 1 * branch $end
$var wire 1 ! clk $end
$var wire 1 " mem2reg $end
$var wire 1 # memwrite $end
$var wire 1 ; pcsrc $end
$var wire 1 ' regwrite $end
$var wire 1 % rst $end
$var wire 1 & zero $end
$var wire 32 < rd2 [31:0] $end
$var wire 32 = rd1 [31:0] $end
$var wire 32 > memout [31:0] $end
$var wire 32 ? instruction [31:0] $end
$var wire 32 @ imm [31:0] $end
$var wire 32 A alu_src2 [31:0] $end
$var wire 32 B alu_out [31:0] $end
$var parameter 88 C IFILE $end
$var parameter 32 D W $end
$var reg 32 E pc [31:0] $end
$scope module dm0 $end
$var wire 1 ! clk $end
$var wire 1 " memread $end
$var wire 1 # memwrite $end
$var wire 32 F data_in [31:0] $end
$var wire 32 G addr [31:0] $end
$var parameter 32 H W $end
$var reg 32 I data_out [31:0] $end
$upscope $end
$scope module ig0 $end
$var wire 7 J opcode [6:0] $end
$var wire 32 K instruction [31:0] $end
$var reg 32 L imm_out [31:0] $end
$upscope $end
$scope module im0 $end
$var wire 1 M CS $end
$var wire 1 N OE $end
$var wire 32 O addr [31:0] $end
$var wire 1 ' regwrite $end
$var wire 32 P word_addr [31:0] $end
$var parameter 88 Q IFILE $end
$var parameter 32 R W $end
$var reg 32 S out [31:0] $end
$var integer 32 T i [31:0] $end
$upscope $end
$scope module rf0 $end
$var wire 5 U Read1 [4:0] $end
$var wire 5 V Read2 [4:0] $end
$var wire 1 ' RegWrite $end
$var wire 32 W WriteData [31:0] $end
$var wire 5 X WriteReg [4:0] $end
$var wire 1 ! clk $end
$var wire 32 Y Data2 [31:0] $end
$var wire 32 Z Data1 [31:0] $end
$var parameter 32 [ W $end
$var integer 32 \ i [31:0] $end
$upscope $end
$scope module ula0 $end
$var wire 32 ] A [31:0] $end
$var wire 4 ^ ALUctl [3:0] $end
$var wire 32 _ B [31:0] $end
$var wire 1 ` rst $end
$var wire 1 & zero $end
$var wire 32 a ALUout [31:0] $end
$var parameter 32 b W $end
$upscope $end
$upscope $end
$upscope $end
$upscope $end
$enddefinitions $end
$comment Show the parameter values. $end
$dumpall
b100000 b
b100000 [
b100000 R
b111001001101111011011010101111101101000011001010111100000101110011011010110010101101101 Q
b100000 H
b100000 D
b111001001101111011011010101111101101000011001010111100000101110011011010110010101101101 C
b110011 9
b10011 8
b1100011 7
b100000000 /
b10000000000 .
b111001001101111011011010101111101101000011001010111100000101110011011010110010101101101 -
$end
#0
$dumpvars
b110 a
z`
b110 _
b10 ^
b0 ]
b100000 \
b0 Z
b0 Y
b1010 X
b110 W
b110 V
b0 U
b10000000000 T
b11000000000010100010011 S
b0 P
b0 O
1N
1M
b110 L
b11000000000010100010011 K
b10011 J
bx I
b110 G
b0 F
b0 E
b110 B
b110 A
b110 @
b11000000000010100010011 ?
bx >
b0 =
b0 <
0;
b10 :
b10 6
05
14
03
b10011 2
b0 1
b0 0
b10 ,
1+
0*
b11000000000010100010011 )
b0 (
1'
0&
1%
z$
0#
0"
0!
$end
#5000
1!
#10000
0!
0%
#15000
1&
b0 W
b0 B
b0 G
b0 a
b0 A
b0 _
b1100 X
b0 V
b0 @
b0 L
b11000010011 )
b11000010011 ?
b11000010011 K
b11000010011 S
b1 P
b100 (
b100 E
b100 O
1!
#20000
0!
#25000
0&
b1 W
b1 B
b1 G
b1 a
b1 A
b1 _
b1101 X
b1 V
b1 @
b1 L
b100000000011010010011 )
b100000000011010010011 ?
b100000000011010010011 K
b100000000011010010011 S
b10 P
b1000 (
b1000 E
b1000 O
1!
#30000
0!
#35000
b1110 X
b100000000011100010011 )
b100000000011100010011 ?
b100000000011100010011 K
b100000000011100010011 S
b11 P
b1100 (
b1100 E
b1100 O
1!
#40000
0!
#45000
b101 W
b101 B
b101 G
b101 a
b1 <
b1 F
b1 Y
b110 =
b110 Z
b110 ]
0'
b110 ,
b110 6
b110 :
b110 ^
b1 A
b1 _
b1100011 J
b0 X
b1110 V
b1010 U
b1 1
0+
04
1*
15
b1100011 2
b100000 @
b100000 L
b10111001010000000001100011 )
b10111001010000000001100011 ?
b10111001010000000001100011 K
b10111001010000000001100011 S
b100 P
b10000 (
b10000 E
b10000 O
1!
#50000
0!
#55000
b1 W
b1 B
b1 G
b1 a
b0 A
b0 _
b0 <
b0 F
b0 Y
b1 =
b1 Z
b1 ]
1'
b10 ,
b10 6
b10 :
b10 ^
b110011 J
b1111 X
b0 V
b1101 U
b0 1
13
0*
05
b110011 2
b0 @
b0 L
b1101000011110110011 )
b1101000011110110011 ?
b1101000011110110011 K
b1101000011110110011 S
b101 P
b10100 (
b10100 E
b10100 O
1!
#60000
0!
#65000
b1101 X
b1100 V
b110001101000011010110011 )
b110001101000011010110011 ?
b110001101000011010110011 K
b110001101000011010110011 S
b110 P
b11000 (
b11000 E
b11000 O
1!
#70000
0!
#75000
b10011 J
b1100 X
b0 V
b1111 U
03
1+
14
b10011 2
b1111000011000010011 )
b1111000011000010011 ?
b1111000011000010011 K
b1111000011000010011 S
b111 P
b11100 (
b11100 E
b11100 O
1!
#80000
0!
#85000
b101 W
b101 B
b101 G
b101 a
b110 =
b110 Z
b110 ]
b11111111111111111111111111111111 A
b11111111111111111111111111111111 _
b1010 X
b11111 V
b1010 U
b1111111 1
b11111111111111111111111111111111 @
b11111111111111111111111111111111 L
b11111111111101010000010100010011 )
b11111111111101010000010100010011 ?
b11111111111101010000010100010011 K
b11111111111101010000010100010011 S
b1000 P
b100000 (
b100000 E
b100000 O
1!
#90000
0!
#95000
0;
0&
b100 W
b100 B
b100 G
b100 a
b1 <
b1 F
b1 Y
0'
b110 ,
b110 6
b110 :
b110 ^
b1 A
b1 _
b1100011 J
b1000 X
b1110 V
b0 1
0+
04
1*
15
b1100011 2
b1000 @
b1000 L
b101 =
b101 Z
b101 ]
b111001010000010001100011 )
b111001010000010001100011 ?
b111001010000010001100011 K
b111001010000010001100011 S
b1001 P
b100100 (
b100100 E
b100100 O
1!
#100000
0!
#105000
1;
1&
b0 W
b0 B
b0 G
b0 a
b0 A
b0 _
b0 <
b0 F
b0 Y
b0 =
b0 Z
b0 ]
b1101 X
b0 V
b0 U
b1111111 1
b11111111111111111111111111101100 @
b11111111111111111111111111101100 L
b11111110000000000000011011100011 )
b11111110000000000000011011100011 ?
b11111110000000000000011011100011 K
b11111110000000000000011011100011 S
b1010 P
b101000 (
b101000 E
b101000 O
1!
#110000
0!
#115000
0&
b1 W
b1 B
b1 G
b1 a
b1 =
b1 Z
b1 ]
1'
b10 ,
b10 6
b10 :
b10 ^
0;
b110011 J
b1111 X
b1101 U
b0 1
13
0*
05
b110011 2
b0 @
b0 L
b1101000011110110011 )
b1101000011110110011 ?
b1101000011110110011 K
b1101000011110110011 S
b101 P
b10100 (
b10100 E
b10100 O
1!
#120000
0!
#125000
b10 W
b10 B
b10 G
b10 a
b1 A
b1 _
b1 <
b1 F
b1 Y
b1101 X
b1100 V
b110001101000011010110011 )
b110001101000011010110011 ?
b110001101000011010110011 K
b110001101000011010110011 S
b110 P
b11000 (
b11000 E
b11000 O
1!
#130000
0!
#135000
b1 W
b1 B
b1 G
b1 a
b0 <
b0 F
b0 Y
b0 A
b0 _
b10011 J
b1100 X
b0 V
b1111 U
03
1+
14
b10011 2
b1 =
b1 Z
b1 ]
b1111000011000010011 )
b1111000011000010011 ?
b1111000011000010011 K
b1111000011000010011 S
b111 P
b11100 (
b11100 E
b11100 O
1!
#140000
0!
#145000
b100 W
b100 B
b100 G
b100 a
b101 =
b101 Z
b101 ]
b11111111111111111111111111111111 A
b11111111111111111111111111111111 _
b1010 X
b11111 V
b1010 U
b1111111 1
b11111111111111111111111111111111 @
b11111111111111111111111111111111 L
b11111111111101010000010100010011 )
b11111111111101010000010100010011 ?
b11111111111101010000010100010011 K
b11111111111101010000010100010011 S
b1000 P
b100000 (
b100000 E
b100000 O
1!
#150000
0!
#155000
0;
0&
b11 W
b11 B
b11 G
b11 a
b1 <
b1 F
b1 Y
0'
b110 ,
b110 6
b110 :
b110 ^
b1 A
b1 _
b1100011 J
b1000 X
b1110 V
b0 1
0+
04
1*
15
b1100011 2
b1000 @
b1000 L
b100 =
b100 Z
b100 ]
b111001010000010001100011 )
b111001010000010001100011 ?
b111001010000010001100011 K
b111001010000010001100011 S
b1001 P
b100100 (
b100100 E
b100100 O
1!
#160000
0!
#165000
1;
1&
b0 W
b0 B
b0 G
b0 a
b0 A
b0 _
b0 <
b0 F
b0 Y
b0 =
b0 Z
b0 ]
b1101 X
b0 V
b0 U
b1111111 1
b11111111111111111111111111101100 @
b11111111111111111111111111101100 L
b11111110000000000000011011100011 )
b11111110000000000000011011100011 ?
b11111110000000000000011011100011 K
b11111110000000000000011011100011 S
b1010 P
b101000 (
b101000 E
b101000 O
1!
#170000
0!
#175000
0&
b10 W
b10 B
b10 G
b10 a
b10 =
b10 Z
b10 ]
1'
b10 ,
b10 6
b10 :
b10 ^
0;
b110011 J
b1111 X
b1101 U
b0 1
13
0*
05
b110011 2
b0 @
b0 L
b1101000011110110011 )
b1101000011110110011 ?
b1101000011110110011 K
b1101000011110110011 S
b101 P
b10100 (
b10100 E
b10100 O
1!
#180000
0!
#185000
b11 W
b11 B
b11 G
b11 a
b1 A
b1 _
b1 <
b1 F
b1 Y
b1101 X
b1100 V
b110001101000011010110011 )
b110001101000011010110011 ?
b110001101000011010110011 K
b110001101000011010110011 S
b110 P
b11000 (
b11000 E
b11000 O
1!
#190000
0!
#195000
b10 W
b10 B
b10 G
b10 a
b0 <
b0 F
b0 Y
b0 A
b0 _
b10011 J
b1100 X
b0 V
b1111 U
03
1+
14
b10011 2
b10 =
b10 Z
b10 ]
b1111000011000010011 )
b1111000011000010011 ?
b1111000011000010011 K
b1111000011000010011 S
b111 P
b11100 (
b11100 E
b11100 O
1!
#200000
0!
#205000
b11 W
b11 B
b11 G
b11 a
b100 =
b100 Z
b100 ]
b11111111111111111111111111111111 A
b11111111111111111111111111111111 _
b1010 X
b11111 V
b1010 U
b1111111 1
b11111111111111111111111111111111 @
b11111111111111111111111111111111 L
b11111111111101010000010100010011 )
b11111111111101010000010100010011 ?
b11111111111101010000010100010011 K
b11111111111101010000010100010011 S
b1000 P
b100000 (
b100000 E
b100000 O
1!
#210000
0!
#215000
0;
0&
b10 W
b10 B
b10 G
b10 a
b1 <
b1 F
b1 Y
0'
b110 ,
b110 6
b110 :
b110 ^
b1 A
b1 _
b1100011 J
b1000 X
b1110 V
b0 1
0+
04
1*
15
b1100011 2
b1000 @
b1000 L
b11 =
b11 Z
b11 ]
b111001010000010001100011 )
b111001010000010001100011 ?
b111001010000010001100011 K
b111001010000010001100011 S
b1001 P
b100100 (
b100100 E
b100100 O
1!
#220000
0!
#225000
1;
1&
b0 W
b0 B
b0 G
b0 a
b0 A
b0 _
b0 <
b0 F
b0 Y
b0 =
b0 Z
b0 ]
b1101 X
b0 V
b0 U
b1111111 1
b11111111111111111111111111101100 @
b11111111111111111111111111101100 L
b11111110000000000000011011100011 )
b11111110000000000000011011100011 ?
b11111110000000000000011011100011 K
b11111110000000000000011011100011 S
b1010 P
b101000 (
b101000 E
b101000 O
1!
#230000
0!
#235000
0&
b11 W
b11 B
b11 G
b11 a
b11 =
b11 Z
b11 ]
1'
b10 ,
b10 6
b10 :
b10 ^
0;
b110011 J
b1111 X
b1101 U
b0 1
13
0*
05
b110011 2
b0 @
b0 L
b1101000011110110011 )
b1101000011110110011 ?
b1101000011110110011 K
b1101000011110110011 S
b101 P
b10100 (
b10100 E
b10100 O
1!
#240000
0!
#245000
b101 W
b101 B
b101 G
b101 a
b10 A
b10 _
b10 <
b10 F
b10 Y
b1101 X
b1100 V
b110001101000011010110011 )
b110001101000011010110011 ?
b110001101000011010110011 K
b110001101000011010110011 S
b110 P
b11000 (
b11000 E
b11000 O
1!
#250000
0!
#255000
b11 W
b11 B
b11 G
b11 a
b0 <
b0 F
b0 Y
b0 A
b0 _
b10011 J
b1100 X
b0 V
b1111 U
03
1+
14
b10011 2
b11 =
b11 Z
b11 ]
b1111000011000010011 )
b1111000011000010011 ?
b1111000011000010011 K
b1111000011000010011 S
b111 P
b11100 (
b11100 E
b11100 O
1!
#260000
0!
#265000
b10 W
b10 B
b10 G
b10 a
b11111111111111111111111111111111 A
b11111111111111111111111111111111 _
b1010 X
b11111 V
b1010 U
b1111111 1
b11111111111111111111111111111111 @
b11111111111111111111111111111111 L
b11111111111101010000010100010011 )
b11111111111101010000010100010011 ?
b11111111111101010000010100010011 K
b11111111111101010000010100010011 S
b1000 P
b100000 (
b100000 E
b100000 O
1!
#270000
0!
#275000
0;
0&
b1 W
b1 B
b1 G
b1 a
b1 <
b1 F
b1 Y
0'
b110 ,
b110 6
b110 :
b110 ^
b1 A
b1 _
b1100011 J
b1000 X
b1110 V
b0 1
0+
04
1*
15
b1100011 2
b1000 @
b1000 L
b10 =
b10 Z
b10 ]
b111001010000010001100011 )
b111001010000010001100011 ?
b111001010000010001100011 K
b111001010000010001100011 S
b1001 P
b100100 (
b100100 E
b100100 O
1!
#280000
0!
#285000
1;
1&
b0 W
b0 B
b0 G
b0 a
b0 A
b0 _
b0 <
b0 F
b0 Y
b0 =
b0 Z
b0 ]
b1101 X
b0 V
b0 U
b1111111 1
b11111111111111111111111111101100 @
b11111111111111111111111111101100 L
b11111110000000000000011011100011 )
b11111110000000000000011011100011 ?
b11111110000000000000011011100011 K
b11111110000000000000011011100011 S
b1010 P
b101000 (
b101000 E
b101000 O
1!
#290000
0!
#295000
0&
b101 W
b101 B
b101 G
b101 a
b101 =
b101 Z
b101 ]
1'
b10 ,
b10 6
b10 :
b10 ^
0;
b110011 J
b1111 X
b1101 U
b0 1
13
0*
05
b110011 2
b0 @
b0 L
b1101000011110110011 )
b1101000011110110011 ?
b1101000011110110011 K
b1101000011110110011 S
b101 P
b10100 (
b10100 E
b10100 O
1!
#300000
0!
#305000
b1000 W
b1000 B
b1000 G
b1000 a
b11 A
b11 _
b11 <
b11 F
b11 Y
b1101 X
b1100 V
b110001101000011010110011 )
b110001101000011010110011 ?
b110001101000011010110011 K
b110001101000011010110011 S
b110 P
b11000 (
b11000 E
b11000 O
1!
#310000
0!
#315000
b101 W
b101 B
b101 G
b101 a
b0 <
b0 F
b0 Y
b0 A
b0 _
b10011 J
b1100 X
b0 V
b1111 U
03
1+
14
b10011 2
b101 =
b101 Z
b101 ]
b1111000011000010011 )
b1111000011000010011 ?
b1111000011000010011 K
b1111000011000010011 S
b111 P
b11100 (
b11100 E
b11100 O
1!
#320000
0!
#325000
b1 W
b1 B
b1 G
b1 a
b10 =
b10 Z
b10 ]
b11111111111111111111111111111111 A
b11111111111111111111111111111111 _
b1010 X
b11111 V
b1010 U
b1111111 1
b11111111111111111111111111111111 @
b11111111111111111111111111111111 L
b11111111111101010000010100010011 )
b11111111111101010000010100010011 ?
b11111111111101010000010100010011 K
b11111111111101010000010100010011 S
b1000 P
b100000 (
b100000 E
b100000 O
1!
#330000
0!
#335000
1;
1&
b0 W
b0 B
b0 G
b0 a
b1 <
b1 F
b1 Y
0'
b110 ,
b110 6
b110 :
b110 ^
b1 A
b1 _
b1100011 J
b1000 X
b1110 V
b0 1
0+
04
1*
15
b1100011 2
b1000 @
b1000 L
b1 =
b1 Z
b1 ]
b111001010000010001100011 )
b111001010000010001100011 ?
b111001010000010001100011 K
b111001010000010001100011 S
b1001 P
b100100 (
b100100 E
b100100 O
1!
#340000
0!
#345000
0&
b1000 W
b1000 B
b1000 G
b1000 a
b0 A
b0 _
b0 <
b0 F
b0 Y
b1000 =
b1000 Z
b1000 ]
1'
b10 ,
b10 6
b10 :
b10 ^
0;
b110011 J
b1010 X
b0 V
b1101 U
13
0*
05
b110011 2
b0 @
b0 L
b1101000010100110011 )
b1101000010100110011 ?
b1101000010100110011 K
b1101000010100110011 S
b1011 P
b101100 (
b101100 E
b101100 O
1!
#350000
0!
#355000
1;
1&
b0 W
b0 B
b0 G
b0 a
b0 =
b0 Z
b0 ]
0'
b110 ,
b110 6
b110 :
b110 ^
b1100011 J
b0 X
b0 U
03
1*
15
b1100011 2
b1100011 )
b1100011 ?
b1100011 K
b1100011 S
b1100 P
b110000 (
b110000 E
b110000 O
1!
